[gd_scene load_steps=5 format=2]

[ext_resource path="res://Scripts/Spooks.cs" type="Script" id=1]
[ext_resource path="res://Sprites/halloween/ghost.png" type="Texture" id=2]

[sub_resource type="SpriteFrames" id=1]
animations = [ {
"frames": [ ExtResource( 2 ) ],
"loop": true,
"name": "default",
"speed": 5.0
} ]

[sub_resource type="RectangleShape2D" id=2]
extents = Vector2( 27.89, 70.2018 )

[node name="Ghost" type="KinematicBody2D" groups=[
"Spook",
]]
position = Vector2( 100, 100 )
scale = Vector2( 0.65, 0.65 )
collision_mask = 2
script = ExtResource( 1 )

[node name="Animation" type="AnimatedSprite" parent="."]
position = Vector2( -1.53845, 0 )
frames = SubResource( 1 )

[node name="CollisionShape2D" type="CollisionShape2D" parent="."]
shape = SubResource( 2 )
