[gd_scene load_steps=5 format=2]

[ext_resource path="res://Scripts/HalloweenGem.cs" type="Script" id=1]
[ext_resource path="res://Sprites/halloween/pumpkin.png" type="Texture" id=2]

[sub_resource type="RectangleShape2D" id=1]
extents = Vector2( 98.3507, 12.9945 )

[sub_resource type="RectangleShape2D" id=2]
extents = Vector2( 19.0359, 20 )

[node name="HalloweenGem" type="KinematicBody2D"]
collision_mask = 2
script = ExtResource( 1 )

[node name="pumpkin" type="Sprite" parent="."]
position = Vector2( 5.33605, 0.139267 )
scale = Vector2( 0.65, 0.65 )
texture = ExtResource( 2 )

[node name="Area2D" type="Area2D" parent="."]
collision_mask = 2

[node name="CollisionShape2D" type="CollisionShape2D" parent="Area2D"]
position = Vector2( 4.06685, -0.451874 )
scale = Vector2( 0.292333, 1.6493 )
shape = SubResource( 1 )

[node name="CollisionShape2D" type="CollisionShape2D" parent="."]
position = Vector2( 4.06685, 0 )
shape = SubResource( 2 )
[connection signal="body_entered" from="Area2D" to="." method="_on_HalloweenGem_body_entered"]
